MATLAB/Radar_pulse_watch_and_EKG/PulsLowerGain_EKG_Test2_0415_EKG.CSV

Record Length,2.500000e+03,, -50.000000000000,  -1.60000,
Sample Interval,4.000000e-02,, -49.960000000000,  -0.60000,
Trigger Point,1.250000000000e+03,, -49.920000000000,  -3.60000,
,,, -49.880000000000,   4.80000,
,,, -49.840000000000,   0.00000,
,,, -49.800000000000,   0.40000,
Source,CH1,, -49.760000000000,  -0.60000,
Vertical Units,V,, -49.720000000000,   0.40000,
Vertical Scale,5.000000e+00,, -49.680000000000,  -0.60000,
Vertical Offset,2.000000e-01,, -49.640000000000,   0.20000,
Horizontal Units,s,, -49.600000000000,  -1.00000,
Horizontal Scale,1.000000e+01,, -49.560000000000,   5.00000,
Pt Fmt,ENV,, -49.520000000000,  -3.20000,
Yzero,0.000000e+00,, -49.480000000000,   5.00000,
Probe Atten,1.000000e+00,, -49.440000000000,   0.20000,
Model Number,TBS1102B-EDU,, -49.400000000000,   1.00000,
Serial Number,C011731,, -49.360000000000,  -0.20000,
Firmware Version,FV:v2.52,, -49.320000000000,   0.80000,
,,,-049.280000000000,  -0.80000,
,,,-049.240000000000,   0.40000,
,,,-049.200000000000,  -3.60000,
,,,-049.160000000000,   5.80000,
,,,-049.120000000000,  -1.80000,
,,,-049.080000000000,   0.60000,
,,,-049.040000000000,  -0.40000,
,,,-049.000000000000,   0.80000,
,,,-048.960000000000,  -0.40000,
,,,-048.920000000000,   0.40000,
,,,-048.880000000000,  -1.00000,
,,,-048.840000000000,   0.00000,
,,,-048.800000000000,  -3.80000,
,,,-048.760000000000,   6.00000,
,,,-048.720000000000,   0.20000,
,,,-048.680000000000,   0.60000,
,,,-048.640000000000,  -0.40000,
,,,-048.600000000000,   0.60000,
,,,-048.560000000000,  -0.80000,
,,,-048.520000000000,   0.20000,
,,,-048.480000000000,  -1.00000,
,,,-048.440000000000,   5.40000,
,,,-048.400000000000,  -3.60000,
,,,-048.360000000000,   1.00000,
,,,-048.320000000000,   0.00000,
,,,-048.280000000000,   0.60000,
,,,-048.240000000000,  -0.60000,
,,,-048.200000000000,   0.20000,
,,,-048.160000000000,  -0.80000,
,,,-048.120000000000,   0.20000,
,,,-048.080000000000,  -3.20000,
,,,-048.040000000000,   5.00000,
,,,-048.000000000000,  -0.60000,
,,,-047.960000000000,   0.80000,
,,,-047.920000000000,  -0.20000,
,,,-047.880000000000,   1.00000,
,,,-047.840000000000,  -0.20000,
,,,-047.800000000000,   0.40000,
,,,-047.760000000000,  -0.80000,
,,,-047.720000000000,   0.20000,
,,,-047.680000000000,  -3.40000,
,,,-047.640000000000,   5.80000,
,,,-047.600000000000,   0.20000,
,,,-047.560000000000,   0.80000,
,,,-047.520000000000,  -0.40000,
,,,-047.480000000000,   0.80000,
,,,-047.440000000000,  -0.80000,
,,,-047.400000000000,   0.40000,
,,,-047.360000000000,  -0.80000,
,,,-047.320000000000,   6.00000,
,,,-047.280000000000,  -3.80000,
,,,-047.240000000000,   1.40000,
,,,-047.200000000000,   0.20000,
,,,-047.160000000000,   0.60000,
,,,-047.120000000000,  -0.60000,
,,,-047.080000000000,   0.20000,
,,,-047.040000000000,  -1.00000,
,,,-047.000000000000,   0.40000,
,,,-046.960000000000,  -4.00000,
,,,-046.920000000000,   6.00000,
,,,-046.880000000000,  -1.60000,
,,,-046.840000000000,   0.40000,
,,,-046.800000000000,  -0.60000,
,,,-046.760000000000,   0.40000,
,,,-046.720000000000,  -0.60000,
,,,-046.680000000000,   0.20000,
,,,-046.640000000000,  -1.00000,
,,,-046.600000000000,  -0.20000,
,,,-046.560000000000,  -4.00000,
,,,-046.520000000000,   5.40000,
,,,-046.480000000000,  -0.20000,
,,,-046.440000000000,   0.60000,
,,,-046.400000000000,  -0.60000,
,,,-046.360000000000,   0.40000,
,,,-046.320000000000,  -0.40000,
,,,-046.280000000000,   0.40000,
,,,-046.240000000000,  -0.80000,
,,,-046.200000000000,   3.20000,
,,,-046.160000000000,  -3.20000,
,,,-046.120000000000,   5.40000,
,,,-046.080000000000,   0.20000,
,,,-046.040000000000,   0.60000,
,,,-046.000000000000,  -0.40000,
,,,-045.960000000000,   0.60000,
,,,-045.920000000000,  -0.80000,
,,,-045.880000000000,   0.60000,
,,,-045.840000000000,  -3.60000,
,,,-045.800000000000,   6.20000,
,,,-045.760000000000,  -3.60000,
,,,-045.720000000000,   0.60000,
,,,-045.680000000000,   0.00000,
,,,-045.640000000000,   0.80000,
,,,-045.600000000000,  -0.40000,
,,,-045.560000000000,   0.40000,
,,,-045.520000000000,  -1.00000,
,,,-045.480000000000,   0.40000,
,,,-045.440000000000,  -4.60000,
,,,-045.400000000000,   5.60000,
,,,-045.360000000000,  -0.60000,
,,,-045.320000000000,   0.60000,
,,,-045.280000000000,  -0.40000,
,,,-045.240000000000,   0.80000,
,,,-045.200000000000,  -0.40000,
,,,-045.160000000000,   0.40000,
,,,-045.120000000000,  -1.00000,
,,,-045.080000000000,   0.00000,
,,,-045.040000000000,  -4.00000,
,,,-045.000000000000,   6.20000,
,,,-044.960000000000,   0.20000,
,,,-044.920000000000,   0.60000,
,,,-044.880000000000,  -0.60000,
,,,-044.840000000000,   0.60000,
,,,-044.800000000000,  -0.60000,
,,,-044.760000000000,   0.40000,
,,,-044.720000000000,  -1.00000,
,,,-044.680000000000,   5.80000,
,,,-044.640000000000,  -4.20000,
,,,-044.600000000000,   6.00000,
,,,-044.560000000000,   0.20000,
,,,-044.520000000000,   0.60000,
,,,-044.480000000000,  -0.40000,
,,,-044.440000000000,   0.40000,
,,,-044.400000000000,  -0.80000,
,,,-044.360000000000,   0.40000,
,,,-044.320000000000,  -3.40000,
,,,-044.280000000000,   5.40000,
,,,-044.240000000000,  -3.60000,
,,,-044.200000000000,   0.40000,
,,,-044.160000000000,   0.00000,
,,,-044.120000000000,   0.60000,
,,,-044.080000000000,  -0.40000,
,,,-044.040000000000,   0.40000,
,,,-044.000000000000,  -0.80000,
,,,-043.960000000000,   0.40000,
,,,-043.920000000000,  -3.20000,
,,,-043.880000000000,   5.20000,
,,,-043.840000000000,  -0.40000,
,,,-043.800000000000,   0.60000,
,,,-043.760000000000,  -0.40000,
,,,-043.720000000000,   0.80000,
,,,-043.680000000000,  -0.40000,
,,,-043.640000000000,   0.40000,
,,,-043.600000000000,  -0.80000,
,,,-043.560000000000,   0.20000,
,,,-043.520000000000,  -3.40000,
,,,-043.480000000000,   5.80000,
,,,-043.440000000000,   0.20000,
,,,-043.400000000000,   0.60000,
,,,-043.360000000000,  -0.40000,
,,,-043.320000000000,   0.80000,
,,,-043.280000000000,  -0.80000,
,,,-043.240000000000,   0.40000,
,,,-043.200000000000,  -1.00000,
,,,-043.160000000000,   5.40000,
,,,-043.120000000000,  -3.80000,
,,,-043.080000000000,   6.00000,
,,,-043.040000000000,   0.20000,
,,,-043.000000000000,   1.00000,
,,,-042.960000000000,  -0.60000,
,,,-042.920000000000,   0.60000,
,,,-042.880000000000,  -0.80000,
,,,-042.840000000000,   0.40000,
,,,-042.800000000000,  -4.20000,
,,,-042.760000000000,   6.40000,
,,,-042.720000000000,  -4.40000,
,,,-042.680000000000,   0.60000,
,,,-042.640000000000,  -0.20000,
,,,-042.600000000000,   1.00000,
,,,-042.560000000000,  -0.60000,
,,,-042.520000000000,   0.40000,
,,,-042.480000000000,  -0.80000,
,,,-042.440000000000,   0.40000,
,,,-042.400000000000,  -4.60000,
,,,-042.360000000000,   6.40000,
,,,-042.320000000000,  -0.80000,
,,,-042.280000000000,   0.60000,
,,,-042.240000000000,  -0.60000,
,,,-042.200000000000,   0.80000,
,,,-042.160000000000,  -0.40000,
,,,-042.120000000000,   0.40000,
,,,-042.080000000000,  -0.80000,
,,,-042.040000000000,   0.40000,
,,,-042.000000000000,  -4.60000,
,,,-041.960000000000,   6.20000,
,,,-041.920000000000,   0.00000,
,,,-041.880000000000,   0.60000,
,,,-041.840000000000,  -0.40000,
,,,-041.800000000000,   0.60000,
,,,-041.760000000000,  -0.40000,
,,,-041.720000000000,   0.40000,
,,,-041.680000000000,  -1.00000,
,,,-041.640000000000,   1.00000,
,,,-041.600000000000,  -4.00000,
,,,-041.560000000000,   5.60000,
,,,-041.520000000000,   0.00000,
,,,-041.480000000000,   0.60000,
,,,-041.440000000000,  -0.40000,
,,,-041.400000000000,   0.40000,
,,,-041.360000000000,  -0.60000,
,,,-041.320000000000,   0.40000,
,,,-041.280000000000,  -1.00000,
,,,-041.240000000000,   4.80000,
,,,-041.200000000000,  -3.20000,
,,,-041.160000000000,   5.40000,
,,,-041.120000000000,   0.20000,
,,,-041.080000000000,   0.80000,
,,,-041.040000000000,  -0.40000,
,,,-041.000000000000,   0.40000,
,,,-040.960000000000,  -0.60000,
,,,-040.920000000000,   0.60000,
,,,-040.880000000000,  -0.80000,
,,,-040.840000000000,   6.20000,
,,,-040.800000000000,  -3.80000,
,,,-040.760000000000,   0.60000,
,,,-040.720000000000,   0.00000,
,,,-040.680000000000,   0.60000,
,,,-040.640000000000,  -0.60000,
,,,-040.600000000000,   0.20000,
,,,-040.560000000000,  -1.00000,
,,,-040.520000000000,   0.40000,
,,,-040.480000000000,  -4.20000,
,,,-040.440000000000,   6.20000,
,,,-040.400000000000,  -4.00000,
,,,-040.360000000000,   0.40000,
,,,-040.320000000000,  -0.20000,
,,,-040.280000000000,   0.80000,
,,,-040.240000000000,  -0.60000,
,,,-040.200000000000,   0.20000,
,,,-040.160000000000,  -1.00000,
,,,-040.120000000000,   0.20000,
,,,-040.080000000000,  -4.60000,
,,,-040.040000000000,   6.00000,
,,,-040.000000000000,  -2.60000,
,,,-039.960000000000,   0.60000,
,,,-039.920000000000,  -0.60000,
,,,-039.880000000000,   0.60000,
,,,-039.840000000000,  -0.60000,
,,,-039.800000000000,   0.20000,
,,,-039.760000000000,  -1.00000,
,,,-039.720000000000,   0.20000,
,,,-039.680000000000,  -4.00000,
,,,-039.640000000000,   5.80000,
,,,-039.600000000000,  -1.00000,
,,,-039.560000000000,   0.60000,
,,,-039.520000000000,  -0.40000,
,,,-039.480000000000,   0.60000,
,,,-039.440000000000,  -0.40000,
,,,-039.400000000000,   0.40000,
,,,-039.360000000000,  -0.80000,
,,,-039.320000000000,   0.40000,
,,,-039.280000000000,  -3.60000,
,,,-039.240000000000,   5.40000,
,,,-039.200000000000,  -0.60000,
,,,-039.160000000000,   0.60000,
,,,-039.120000000000,  -0.20000,
,,,-039.080000000000,   0.60000,
,,,-039.040000000000,  -0.40000,
,,,-039.000000000000,   0.60000,
,,,-038.960000000000,  -0.80000,
,,,-038.920000000000,   0.60000,
,,,-038.880000000000,  -3.40000,
,,,-038.840000000000,   5.80000,
,,,-038.800000000000,  -0.40000,
,,,-038.760000000000,   0.60000,
,,,-038.720000000000,  -0.40000,
,,,-038.680000000000,   0.80000,
,,,-038.640000000000,  -0.40000,
,,,-038.600000000000,   0.60000,
,,,-038.560000000000,  -0.80000,
,,,-038.520000000000,   0.40000,
,,,-038.480000000000,  -4.20000,
,,,-038.440000000000,   5.80000,
,,,-038.400000000000,  -0.60000,
,,,-038.360000000000,   0.80000,
,,,-038.320000000000,  -0.40000,
,,,-038.280000000000,   0.80000,
,,,-038.240000000000,  -0.40000,
,,,-038.200000000000,   0.40000,
,,,-038.160000000000,  -0.80000,
,,,-038.120000000000,   0.40000,
,,,-038.080000000000,  -4.20000,
,,,-038.040000000000,   6.60000,
,,,-038.000000000000,  -0.20000,
,,,-037.960000000000,   0.60000,
,,,-037.920000000000,  -0.40000,
,,,-037.880000000000,   0.80000,
,,,-037.840000000000,  -0.40000,
,,,-037.800000000000,   0.20000,
,,,-037.760000000000,  -1.00000,
,,,-037.720000000000,   0.40000,
,,,-037.680000000000,  -4.60000,
,,,-037.640000000000,   5.80000,
,,,-037.600000000000,  -0.40000,
,,,-037.560000000000,   0.40000,
,,,-037.520000000000,  -0.60000,
,,,-037.480000000000,   0.40000,
,,,-037.440000000000,  -0.60000,
,,,-037.400000000000,   0.20000,
,,,-037.360000000000,  -1.00000,
,,,-037.320000000000,   0.20000,
,,,-037.280000000000,  -3.80000,
,,,-037.240000000000,   5.40000,
,,,-037.200000000000,  -1.20000,
,,,-037.160000000000,   0.40000,
,,,-037.120000000000,  -0.20000,
,,,-037.080000000000,   0.60000,
,,,-037.040000000000,  -0.40000,
,,,-037.000000000000,   0.60000,
,,,-036.960000000000,  -0.60000,
,,,-036.920000000000,   0.60000,
,,,-036.880000000000,  -3.60000,
,,,-036.840000000000,   6.00000,
,,,-036.800000000000,  -2.00000,
,,,-036.760000000000,   0.60000,
,,,-036.720000000000,  -0.80000,
,,,-036.680000000000,   0.80000,
,,,-036.640000000000,  -0.80000,
,,,-036.600000000000,   0.40000,
,,,-036.560000000000,  -1.00000,
,,,-036.520000000000,   0.40000,
,,,-036.480000000000,  -4.20000,
,,,-036.440000000000,   6.20000,
,,,-036.400000000000,  -2.60000,
,,,-036.360000000000,   0.60000,
,,,-036.320000000000,  -0.40000,
,,,-036.280000000000,   1.00000,
,,,-036.240000000000,  -0.60000,
,,,-036.200000000000,   0.20000,
,,,-036.160000000000,  -0.80000,
,,,-036.120000000000,   0.40000,
,,,-036.080000000000,  -4.20000,
,,,-036.040000000000,   6.20000,
,,,-036.000000000000,  -3.00000,
,,,-035.960000000000,   0.60000,
,,,-035.920000000000,  -0.40000,
,,,-035.880000000000,   0.80000,
,,,-035.840000000000,  -0.60000,
,,,-035.800000000000,   0.20000,
,,,-035.760000000000,  -1.00000,
,,,-035.720000000000,   0.20000,
,,,-035.680000000000,  -4.60000,
,,,-035.640000000000,   5.80000,
,,,-035.600000000000,  -4.20000,
,,,-035.560000000000,   0.40000,
,,,-035.520000000000,   0.00000,
,,,-035.480000000000,   0.80000,
,,,-035.440000000000,  -0.40000,
,,,-035.400000000000,   0.40000,
,,,-035.360000000000,  -0.80000,
,,,-035.320000000000,   0.40000,
,,,-035.280000000000,  -3.40000,
,,,-035.240000000000,   5.60000,
,,,-035.200000000000,  -3.80000,
,,,-035.160000000000,   0.40000,
,,,-035.120000000000,   0.00000,
,,,-035.080000000000,   0.80000,
,,,-035.040000000000,  -0.40000,
,,,-035.000000000000,   0.20000,
,,,-034.960000000000,  -0.80000,
,,,-034.920000000000,   0.40000,
,,,-034.880000000000,  -0.80000,
,,,-034.840000000000,   5.40000,
,,,-034.800000000000,  -3.40000,
,,,-034.760000000000,   4.00000,
,,,-034.720000000000,   0.40000,
,,,-034.680000000000,   0.80000,
,,,-034.640000000000,  -0.40000,
,,,-034.600000000000,   0.60000,
,,,-034.560000000000,  -0.60000,
,,,-034.520000000000,   0.40000,
,,,-034.480000000000,  -0.80000,
,,,-034.440000000000,   5.60000,
,,,-034.400000000000,  -3.60000,
,,,-034.360000000000,   6.20000,
,,,-034.320000000000,   0.00000,
,,,-034.280000000000,   0.60000,
,,,-034.240000000000,  -0.80000,
,,,-034.200000000000,   0.60000,
,,,-034.160000000000,  -0.60000,
,,,-034.120000000000,   0.60000,
,,,-034.080000000000,  -1.00000,
,,,-034.040000000000,   2.60000,
,,,-034.000000000000,  -4.40000,
,,,-033.960000000000,   6.20000,
,,,-033.920000000000,   0.20000,
,,,-033.880000000000,   0.80000,
,,,-033.840000000000,  -0.60000,
,,,-033.800000000000,   0.60000,
,,,-033.760000000000,  -0.40000,
,,,-033.720000000000,   0.20000,
,,,-033.680000000000,  -0.80000,
,,,-033.640000000000,   0.00000,
,,,-033.600000000000,  -4.60000,
,,,-033.560000000000,   5.80000,
,,,-033.520000000000,   0.00000,
,,,-033.480000000000,   0.60000,
,,,-033.440000000000,  -0.40000,
,,,-033.400000000000,   0.40000,
,,,-033.360000000000,  -0.40000,
,,,-033.320000000000,   0.40000,
,,,-033.280000000000,  -0.80000,
,,,-033.240000000000,   0.20000,
,,,-033.200000000000,  -4.20000,
,,,-033.160000000000,   5.80000,
,,,-033.120000000000,   0.00000,
,,,-033.080000000000,   0.80000,
,,,-033.040000000000,  -0.40000,
,,,-033.000000000000,   0.80000,
,,,-032.960000000000,  -0.40000,
,,,-032.920000000000,   0.40000,
,,,-032.880000000000,  -0.80000,
,,,-032.840000000000,   0.40000,
,,,-032.800000000000,  -3.80000,
,,,-032.760000000000,   5.80000,
,,,-032.720000000000,  -1.00000,
,,,-032.680000000000,   0.80000,
,,,-032.640000000000,  -0.40000,
,,,-032.600000000000,   0.80000,
,,,-032.560000000000,  -0.40000,
,,,-032.520000000000,   0.40000,
,,,-032.480000000000,  -0.80000,
,,,-032.440000000000,   0.60000,
,,,-032.400000000000,  -4.00000,
,,,-032.360000000000,   6.20000,
,,,-032.320000000000,  -3.60000,
,,,-032.280000000000,   0.60000,
,,,-032.240000000000,  -0.20000,
,,,-032.200000000000,   0.80000,
,,,-032.160000000000,  -0.60000,
,,,-032.120000000000,   0.20000,
,,,-032.080000000000,  -0.80000,
,,,-032.040000000000,   0.40000,
,,,-032.000000000000,  -2.40000,
,,,-031.960000000000,   6.20000,
,,,-031.920000000000,  -4.40000,
,,,-031.880000000000,   0.40000,
,,,-031.840000000000,   0.20000,
,,,-031.800000000000,   1.00000,
,,,-031.760000000000,  -0.60000,
,,,-031.720000000000,   0.20000,
,,,-031.680000000000,  -0.80000,
,,,-031.640000000000,   0.40000,
,,,-031.600000000000,  -1.00000,
,,,-031.560000000000,   5.00000,
,,,-031.520000000000,  -4.60000,
,,,-031.480000000000,   5.80000,
,,,-031.440000000000,   0.00000,
,,,-031.400000000000,   0.40000,
,,,-031.360000000000,  -0.80000,
,,,-031.320000000000,   0.00000,
,,,-031.280000000000,  -0.60000,
,,,-031.240000000000,   0.20000,
,,,-031.200000000000,  -1.00000,
,,,-031.160000000000,  -0.20000,
,,,-031.120000000000,  -4.20000,
,,,-031.080000000000,   5.40000,
,,,-031.040000000000,   0.00000,
,,,-031.000000000000,   0.80000,
,,,-030.960000000000,  -0.40000,
,,,-030.920000000000,   0.60000,
,,,-030.880000000000,  -0.40000,
,,,-030.840000000000,   0.40000,
,,,-030.800000000000,  -0.80000,
,,,-030.760000000000,   0.40000,
,,,-030.720000000000,  -3.60000,
,,,-030.680000000000,   5.40000,
,,,-030.640000000000,   0.20000,
,,,-030.600000000000,   0.80000,
,,,-030.560000000000,  -0.20000,
,,,-030.520000000000,   1.00000,
,,,-030.480000000000,  -0.20000,
,,,-030.440000000000,   0.40000,
,,,-030.400000000000,  -0.60000,
,,,-030.360000000000,   0.80000,
,,,-030.320000000000,  -3.40000,
,,,-030.280000000000,   6.00000,
,,,-030.240000000000,  -2.20000,
,,,-030.200000000000,   1.00000,
,,,-030.160000000000,   0.00000,
,,,-030.120000000000,   1.20000,
,,,-030.080000000000,  -0.20000,
,,,-030.040000000000,   0.60000,
,,,-030.000000000000,  -0.80000,
,,,-029.960000000000,   0.60000,
,,,-029.920000000000,  -4.20000,
,,,-029.880000000000,   6.20000,
,,,-029.840000000000,  -4.00000,
,,,-029.800000000000,   0.60000,
,,,-029.760000000000,  -0.40000,
,,,-029.720000000000,   0.80000,
,,,-029.680000000000,  -0.60000,
,,,-029.640000000000,   0.20000,
,,,-029.600000000000,  -0.40000,
,,,-029.560000000000,   0.40000,
,,,-029.520000000000,  -0.60000,
,,,-029.480000000000,   6.20000,
,,,-029.440000000000,  -4.60000,
,,,-029.400000000000,   0.40000,
,,,-029.360000000000,   0.00000,
,,,-029.320000000000,   0.80000,
,,,-029.280000000000,  -0.80000,
,,,-029.240000000000,   0.20000,
,,,-029.200000000000,  -0.80000,
,,,-029.160000000000,   0.20000,
,,,-029.120000000000,  -1.00000,
,,,-029.080000000000,   4.80000,
,,,-029.040000000000,  -4.80000,
,,,-029.000000000000,   6.00000,
,,,-028.960000000000,   0.20000,
,,,-028.920000000000,   0.80000,
,,,-028.880000000000,  -0.60000,
,,,-028.840000000000,   0.40000,
,,,-028.800000000000,  -0.40000,
,,,-028.760000000000,   0.20000,
,,,-028.720000000000,  -1.00000,
,,,-028.680000000000,  -0.20000,
,,,-028.640000000000,  -4.20000,
,,,-028.600000000000,   5.60000,
,,,-028.560000000000,   0.00000,
,,,-028.520000000000,   0.60000,
,,,-028.480000000000,  -0.60000,
,,,-028.440000000000,   0.60000,
,,,-028.400000000000,  -0.40000,
,,,-028.360000000000,   0.20000,
,,,-028.320000000000,  -1.00000,
,,,-028.280000000000,   0.40000,
,,,-028.240000000000,  -3.80000,
,,,-028.200000000000,   5.40000,
,,,-028.160000000000,  -0.20000,
,,,-028.120000000000,   0.60000,
,,,-028.080000000000,  -0.40000,
,,,-028.040000000000,   0.80000,
,,,-028.000000000000,  -0.60000,
,,,-027.960000000000,   0.20000,
,,,-027.920000000000,  -0.80000,
,,,-027.880000000000,   0.40000,
,,,-027.840000000000,  -3.80000,
,,,-027.800000000000,   5.80000,
,,,-027.760000000000,  -3.00000,
,,,-027.720000000000,   0.60000,
,,,-027.680000000000,  -0.20000,
,,,-027.640000000000,   0.80000,
,,,-027.600000000000,  -0.60000,
,,,-027.560000000000,   0.00000,
,,,-027.520000000000,  -1.00000,
,,,-027.480000000000,   0.40000,
,,,-027.440000000000,  -4.00000,
,,,-027.400000000000,   6.00000,
,,,-027.360000000000,  -4.00000,
,,,-027.320000000000,   0.60000,
,,,-027.280000000000,  -0.20000,
,,,-027.240000000000,   0.80000,
,,,-027.200000000000,  -0.60000,
,,,-027.160000000000,   0.00000,
,,,-027.120000000000,  -0.80000,
,,,-027.080000000000,   0.60000,
,,,-027.040000000000,  -0.80000,
,,,-027.000000000000,   6.20000,
,,,-026.960000000000,  -4.60000,
,,,-026.920000000000,   5.20000,
,,,-026.880000000000,   0.20000,
,,,-026.840000000000,   0.80000,
,,,-026.800000000000,  -0.40000,
,,,-026.760000000000,   0.40000,
,,,-026.720000000000,  -0.40000,
,,,-026.680000000000,   0.40000,
,,,-026.640000000000,  -0.80000,
,,,-026.600000000000,   1.60000,
,,,-026.560000000000,  -5.20000,
,,,-026.520000000000,   6.00000,
,,,-026.480000000000,   0.20000,
,,,-026.440000000000,   0.80000,
,,,-026.400000000000,  -0.60000,
,,,-026.360000000000,   0.80000,
,,,-026.320000000000,  -0.20000,
,,,-026.280000000000,   0.40000,
,,,-026.240000000000,  -1.00000,
,,,-026.200000000000,   0.40000,
